{
  "images" : [
    {
      "filename" : "iPhone_Notification20@2x.png",
      "idiom" : "iphone",
      "scale" : "2x",
      "size" : "20x20"
    },
    {
      "filename" : "iPhone_Notification20@3x.png",
      "idiom" : "iphone",
      "scale" : "3x",
      "size" : "20x20"
    },
    {
      "filename" : "iPhone_Settings29@2x.png",
      "idiom" : "iphone",
      "scale" : "2x",
      "size" : "29x29"
    },
    {
      "filename" : "iPhone_Settings29@3x.png",
      "idiom" : "iphone",
      "scale" : "3x",
      "size" : "29x29"
    },
    {
      "filename" : "iPhone_Spotlight40@2x.png",
      "idiom" : "iphone",
      "scale" : "2x",
      "size" : "40x40"
    },
    {
      "filename" : "iPhone_Spotlight40@3x.png",
      "idiom" : "iphone",
      "scale" : "3x",
      "size" : "40x40"
    },
    {
      "filename" : "iPhone_App60@2x.png",
      "idiom" : "iphone",
      "scale" : "2x",
      "size" : "60x60"
    },
    {
      "filename" : "iPhone_App60@3x.png",
      "idiom" : "iphone",
      "scale" : "3x",
      "size" : "60x60"
    },
    {
      "filename" : "iPad_Notification20@1x.png",
      "idiom" : "ipad",
      "scale" : "1x",
      "size" : "20x20"
    },
    {
      "filename" : "iPad_Notification20@2x.png",
      "idiom" : "ipad",
      "scale" : "2x",
      "size" : "20x20"
    },
    {
      "filename" : "iPad_Settings29@1x.png",
      "idiom" : "ipad",
      "scale" : "1x",
      "size" : "29x29"
    },
    {
      "filename" : "iPad_Settings29@2x.png",
      "idiom" : "ipad",
      "scale" : "2x",
      "size" : "29x29"
    },
    {
      "filename" : "iPad_Spotlight40@1x.png",
      "idiom" : "ipad",
      "scale" : "1x",
      "size" : "40x40"
    },
    {
      "filename" : "iPad_Spotlight40@2x.png",
      "idiom" : "ipad",
      "scale" : "2x",
      "size" : "40x40"
    },
    {
      "filename" : "iPad_App76@1x.png",
      "idiom" : "ipad",
      "scale" : "1x",
      "size" : "76x76"
    },
    {
      "filename" : "iPad_App76@2x.png",
      "idiom" : "ipad",
      "scale" : "2x",
      "size" : "76x76"
    },
    {
      "filename" : "iPad_Pro_12.9-inch83.5@2x.png",
      "idiom" : "ipad",
      "scale" : "2x",
      "size" : "83.5x83.5"
    },
    {
      "filename" : "App_Store1024@1x.png",
      "idiom" : "ios-marketing",
      "scale" : "1x",
      "size" : "1024x1024"
    },
    {
      "filename" : "CarPlay60@2x.png",
      "idiom" : "car",
      "scale" : "2x",
      "size" : "60x60"
    },
    {
      "filename" : "CarPlay60@3x.png",
      "idiom" : "car",
      "scale" : "3x",
      "size" : "60x60"
    },
    {
      "filename" : "Apple_Watch_Notification_Center_38mm24+27.5@2x.png",
      "idiom" : "watch",
      "role" : "notificationCenter",
      "scale" : "2x",
      "size" : "24x24",
      "subtype" : "38mm"
    },
    {
      "filename" : "Apple_Watch_Notification_Center_40mm_42mm24+27.5@2x.png",
      "idiom" : "watch",
      "role" : "notificationCenter",
      "scale" : "2x",
      "size" : "27.5x27.5",
      "subtype" : "42mm"
    },
    {
      "filename" : "Apple_Watch_Companion_Settings_Notification_Center29@2x.png",
      "idiom" : "watch",
      "role" : "companionSettings",
      "scale" : "2x",
      "size" : "29x29"
    },
    {
      "filename" : "Apple_Watch_Companion_Settings_Notification_Center29@3x.png",
      "idiom" : "watch",
      "role" : "companionSettings",
      "scale" : "3x",
      "size" : "29x29"
    },
    {
      "filename" : "Apple_Watch_Notification_Center_66x66@2x.png",
      "idiom" : "watch",
      "role" : "notificationCenter",
      "scale" : "2x",
      "size" : "33x33",
      "subtype" : "45mm"
    },
    {
      "filename" : "Apple_Watch_Home_Screen_38mm40+44+50@2x.png",
      "idiom" : "watch",
      "role" : "appLauncher",
      "scale" : "2x",
      "size" : "40x40",
      "subtype" : "38mm"
    },
    {
      "filename" : "Apple_Watch_Home_Screen_40mm_42mm40+44+50@2x.png",
      "idiom" : "watch",
      "role" : "appLauncher",
      "scale" : "2x",
      "size" : "44x44",
      "subtype" : "40mm"
    },
    {
      "filename" : "Apple_Watch_46x46_App_Launcher_41mm@2x.png",
      "idiom" : "watch",
      "role" : "appLauncher",
      "scale" : "2x",
      "size" : "46x46",
      "subtype" : "41mm"
    },
    {
      "filename" : "Apple_Watch_Home_Screen_44mm40+44+50@2x.png",
      "idiom" : "watch",
      "role" : "appLauncher",
      "scale" : "2x",
      "size" : "50x50",
      "subtype" : "44mm"
    },
    {
      "filename" : "Apple_Watch_51x51_App_Launcher_45mm@2x.png",
      "idiom" : "watch",
      "role" : "appLauncher",
      "scale" : "2x",
      "size" : "51x51",
      "subtype" : "45mm"
    },
    {
      "filename" : "Apple_Watch_Short_Look_38mm86+98+108@2x.png",
      "idiom" : "watch",
      "role" : "quickLook",
      "scale" : "2x",
      "size" : "86x86",
      "subtype" : "38mm"
    },
    {
      "filename" : "Apple_Watch_Short_Look_40mm_42mm86+98+108@2x.png",
      "idiom" : "watch",
      "role" : "quickLook",
      "scale" : "2x",
      "size" : "98x98",
      "subtype" : "42mm"
    },
    {
      "filename" : "Apple_Watch_Short_Look_44mm86+98+108@2x.png",
      "idiom" : "watch",
      "role" : "quickLook",
      "scale" : "2x",
      "size" : "108x108",
      "subtype" : "44mm"
    },
    {
      "filename" : "Apple_Watch_Quick_Look_45mm117x117@2x.png",
      "idiom" : "watch",
      "role" : "quickLook",
      "scale" : "2x",
      "size" : "117x117",
      "subtype" : "45mm"
    },
    {
      "filename" : "Apple_Watch_App_Store1024@1x.png",
      "idiom" : "watch-marketing",
      "scale" : "1x",
      "size" : "1024x1024"
    },
    {
      "filename" : "Mac16@1x.png",
      "idiom" : "mac",
      "scale" : "1x",
      "size" : "16x16"
    },
    {
      "filename" : "Mac16@2x.png",
      "idiom" : "mac",
      "scale" : "2x",
      "size" : "16x16"
    },
    {
      "filename" : "Mac32@1x.png",
      "idiom" : "mac",
      "scale" : "1x",
      "size" : "32x32"
    },
    {
      "filename" : "Mac32@2x.png",
      "idiom" : "mac",
      "scale" : "2x",
      "size" : "32x32"
    },
    {
      "filename" : "Mac128@1x.png",
      "idiom" : "mac",
      "scale" : "1x",
      "size" : "128x128"
    },
    {
      "filename" : "Mac128@2x.png",
      "idiom" : "mac",
      "scale" : "2x",
      "size" : "128x128"
    },
    {
      "filename" : "Mac256@1x.png",
      "idiom" : "mac",
      "scale" : "1x",
      "size" : "256x256"
    },
    {
      "filename" : "Mac256@2x.png",
      "idiom" : "mac",
      "scale" : "2x",
      "size" : "256x256"
    },
    {
      "filename" : "Mac512@1x.png",
      "idiom" : "mac",
      "scale" : "1x",
      "size" : "512x512"
    },
    {
      "filename" : "Mac512@2x.png",
      "idiom" : "mac",
      "scale" : "2x",
      "size" : "512x512"
    }
  ],
  "info" : {
    "author" : "xcode",
    "version" : 1
  }
}
